MA0501 – Tarea 1
…
7

Calcular la suma de las columnas numéricas

8

Calcular mínimo, máximo, media y mediana para variables cuantitativas

9

Contar cantidad de Sí y No en la variable chd

[1] 462  10
# A tibble: 462 × 3
     sbp tobacco   ldl
   <dbl>   <dbl> <dbl>
 1   160   12     5.73
 2   144    0.01  4.41
 3   118    0.08  3.48
 4   170    7.5   6.41
 5   134   13.6   3.5 
 6   132    6.2   6.47
 7   142    4.05  3.38
 8   114    4.08  4.59
 9   114    0     3.83
10   132    0     5.8 
# ℹ 452 more rows
…
